10
Computed for:
1
Collaborative
TP 4
TN 72
FP 0
FN 56
Content
TP 1
TN 75
FP 0
FN 56
2
Collaborative
TP 3
TN 9
FP 0
FN 9
Content
TP 0
TN 12
FP 0
FN 9
3
Collaborative
TP 1
TN 4
FP 4
FN 17
Content
TP 0
TN 5
FP 1
FN 20
4
Collaborative
TP 2
TN 6
FP 0
FN 2
Content
TP 1
TN 7
FP 0
FN 2
5
Collaborative
TP 4
TN 19
FP 2
FN 55
Content
TP 3
TN 20
FP 3
FN 54
6
Collaborative
TP 7
TN 57
FP 0
FN 37
Content
TP 1
TN 63
FP 0
FN 37
7
Collaborative
TP 7
TN 124
FP 1
FN 52
Content
TP 2
TN 129
FP 1
FN 52
8
Collaborative
TP 4
TN 18
FP 0
FN 6
Content
TP 2
TN 20
FP 0
FN 6
9
Collaborative
TP 0
TN 9
FP 0
FN 1
Content
TP 0
TN 9
FP 0
FN 1
10
Collaborative
TP 6
TN 75
FP 0
FN 7
Content
TP 0
TN 81
FP 0
FN 7
11
Collaborative
TP 2
TN 35
FP 2
FN 36
Content
TP 0
TN 37
FP 1
FN 37
12
Collaborative
TP 2
TN 23
FP 1
FN 0
Content
TP 1
TN 24
FP 0
FN 1
13
Collaborative
TP 7
TN 95
FP 1
FN 135
Content
TP 2
TN 100
FP 0
FN 136
14
Collaborative
TP 5
TN 36
FP 1
FN 15
Content
TP 1
TN 40
FP 0
FN 16
15
Collaborative
TP 0
TN 15
FP 4
FN 25
Content
TP 0
TN 15
FP 0
FN 29
16
Collaborative
TP 4
TN 55
FP 0
FN 12
Content
TP 1
TN 58
FP 0
FN 12
17
Collaborative
TP 0
TN 2
FP 1
FN 6
Content
TP 0
TN 2
FP 0
FN 7
18
Collaborative
TP 7
TN 61
FP 0
FN 47
Content
TP 1
TN 67
FP 3
FN 44
19
Collaborative
TP 0
TN 5
FP 1
FN 4
Content
TP 0
TN 5
FP 1
FN 4
20
Collaborative
TP 1
TN 5
FP 2
FN 14
Content
TP 0
TN 6
FP 1
FN 15
21
Collaborative
TP 0
TN 21
FP 0
FN 60
Content
TP 1
TN 20
FP 2
FN 58
22
Collaborative
TP 6
TN 29
FP 0
FN 21
Content
TP 3
TN 32
FP 2
FN 19
23
Collaborative
TP 5
TN 30
FP 1
FN 27
Content
TP 3
TN 32
FP 0
FN 28
24
Collaborative
TP 4
TN 18
FP 0
FN 5
Content
TP 0
TN 22
FP 1
FN 4
25
Collaborative
TP 1
TN 29
FP 2
FN 5
Content
TP 1
TN 29
FP 0
FN 7
26
Collaborative
TP 1
TN 5
FP 2
FN 32
Content
TP 0
TN 6
FP 0
FN 34
27
Collaborative
TP 0
TN 6
FP 0
FN 9
Content
TP 0
TN 6
FP 0
FN 9
28
Collaborative
TP 5
TN 22
FP 1
FN 12
Content
TP 0
TN 27
FP 2
FN 11
29
Collaborative
TP 1
TN 9
FP 0
FN 7
Content
TP 1
TN 9
FP 1
FN 6
30
Collaborative
TP 2
TN 10
FP 0
FN 6
Content
TP 1
TN 11
FP 0
FN 6
31
Collaborative
TP 0
TN 10
FP 0
FN 3
Content
TP 0
TN 10
FP 0
FN 3
32
Collaborative
TP 1
TN 5
FP 1
FN 12
Content
TP 0
TN 6
FP 1
FN 12
33
Collaborative
TP 2
TN 5
FP 0
FN 3
Content
TP 0
TN 7
FP 0
FN 3
34
Collaborative
TP 1
TN 8
FP 0
FN 1
Content
TP 0
TN 9
FP 0
FN 1
35
Collaborative
TP 0
TN 3
FP 0
FN 5
Content
TP 0
TN 3
FP 0
FN 5
36
Collaborative
TP 1
TN 6
FP 0
FN 4
Content
TP 0
TN 7
FP 0
FN 4
37
Collaborative
TP 2
TN 13
FP 0
FN 5
Content
TP 0
TN 15
FP 0
FN 5
38
Collaborative
TP 2
TN 31
FP 0
FN 25
Content
TP 1
TN 32
FP 0
FN 25
39
Collaborative
TP 1
TN 4
FP 1
FN 3
Content
TP 0
TN 5
FP 0
FN 4
40
Collaborative
TP 1
TN 5
FP 1
FN 6
Content
TP 0
TN 6
FP 0
FN 7
41
Collaborative
TP 4
TN 9
FP 0
FN 8
Content
TP 1
TN 12
FP 0
FN 8
42
Collaborative
TP 8
TN 54
FP 0
FN 31
Content
TP 1
TN 61
FP 0
FN 31
43
Collaborative
TP 7
TN 68
FP 0
FN 34
Content
TP 2
TN 73
FP 0
FN 34
44
Collaborative
TP 7
TN 40
FP 1
FN 23
Content
TP 3
TN 44
FP 1
FN 23
45
Collaborative
TP 2
TN 10
FP 0
FN 7
Content
TP 0
TN 12
FP 1
FN 6
46
Collaborative
TP 1
TN 11
FP 0
FN 4
Content
TP 1
TN 11
FP 0
FN 4
47
Collaborative
TP 3
TN 3
FP 1
FN 2
Content
TP 0
TN 6
FP 0
FN 3
48
Collaborative
TP 2
TN 19
FP 1
FN 11
Content
TP 0
TN 21
FP 0
FN 12
49
Collaborative
TP 2
TN 23
FP 1
FN 79
Content
TP 0
TN 25
FP 2
FN 78
50
Collaborative
TP 1
TN 5
FP 0
FN 5
Content
TP 0
TN 6
FP 0
FN 5
51
Collaborative
TP 1
TN 2
FP 0
FN 4
Content
TP 0
TN 3
FP 0
FN 4
52
Collaborative
TP 1
TN 16
FP 0
FN 4
Content
TP 0
TN 17
FP 0
FN 4
53
Collaborative
TP 3
TN 3
FP 1
FN 5
Content
TP 1
TN 5
FP 0
FN 6
54
Collaborative
TP 6
TN 19
FP 0
FN 10
Content
TP 0
TN 25
FP 0
FN 10
55
Collaborative
TP 1
TN 3
FP 2
FN 5
Content
TP 0
TN 4
FP 0
FN 7
56
Collaborative
TP 8
TN 48
FP 0
FN 39
Content
TP 5
TN 51
FP 0
FN 39
57
Collaborative
TP 2
TN 18
FP 1
FN 30
Content
TP 1
TN 19
FP 0
FN 31
58
Collaborative
TP 3
TN 49
FP 1
FN 18
Content
TP 0
TN 52
FP 0
FN 19
59
Collaborative
TP 7
TN 105
FP 0
FN 53
Content
TP 3
TN 109
FP 0
FN 53
60
Collaborative
TP 7
TN 66
FP 0
FN 13
Content
TP 1
TN 72
FP 1
FN 12
61
Collaborative
TP 0
TN 3
FP 1
FN 5
Content
TP 0
TN 3
FP 0
FN 6
62
Collaborative
TP 5
TN 50
FP 1
FN 53
Content
TP 1
TN 54
FP 0
FN 54
63
Collaborative
TP 1
TN 16
FP 1
FN 27
Content
TP 0
TN 17
FP 0
FN 28
64
Collaborative
TP 4
TN 49
FP 0
FN 37
Content
TP 2
TN 51
FP 1
FN 36
65
Collaborative
TP 2
TN 23
FP 0
FN 7
Content
TP 0
TN 25
FP 0
FN 7
66
Collaborative
TP 4
TN 5
FP 3
FN 5
Content
TP 0
TN 9
FP 0
FN 8
67
Collaborative
TP 2
TN 11
FP 1
FN 4
Content
TP 0
TN 13
FP 0
FN 5
68
Collaborative
TP 1
TN 5
FP 0
FN 10
Content
TP 0
TN 6
FP 0
FN 10
69
Collaborative
TP 1
TN 14
FP 0
FN 11
Content
TP 0
TN 15
FP 1
FN 10
70
Collaborative
TP 3
TN 27
FP 3
FN 20
Content
TP 1
TN 29
FP 0
FN 23
71
Collaborative
TP 2
TN 7
FP 1
FN 6
Content
TP 0
TN 9
FP 0
FN 7
72
Collaborative
TP 4
TN 46
FP 0
FN 14
Content
TP 2
TN 48
FP 2
FN 12
73
Collaborative
TP 5
TN 16
FP 0
FN 9
Content
TP 0
TN 21
FP 0
FN 9
74
Collaborative
TP 1
TN 7
FP 0
FN 10
Content
TP 0
TN 8
FP 1
FN 9
75
Collaborative
TP 1
TN 17
FP 1
FN 16
Content
TP 0
TN 18
FP 0
FN 17
76
Collaborative
TP 2
TN 18
FP 1
FN 14
Content
TP 0
TN 20
FP 0
FN 15
77
Collaborative
TP 5
TN 13
FP 1
FN 14
Content
TP 0
TN 18
FP 2
FN 13
78
Collaborative
TP 1
TN 3
FP 1
FN 2
Content
TP 0
TN 4
FP 0
FN 3
79
Collaborative
TP 2
TN 15
FP 0
FN 11
Content
TP 0
TN 17
FP 0
FN 11
80
Collaborative
TP 0
TN 7
FP 0
FN 8
Content
TP 0
TN 7
FP 0
FN 8
81
Collaborative
TP 1
TN 10
FP 0
FN 17
Content
TP 0
TN 11
FP 0
FN 17
82
Collaborative
TP 3
TN 31
FP 3
FN 44
Content
TP 0
TN 34
FP 0
FN 47
83
Collaborative
TP 0
TN 48
FP 1
FN 27
Content
TP 2
TN 46
FP 0
FN 28
84
Collaborative
TP 2
TN 17
FP 0
FN 6
Content
TP 0
TN 19
FP 0
FN 6
85
Collaborative
TP 6
TN 62
FP 1
FN 57
Content
TP 1
TN 67
FP 2
FN 56
86
Collaborative
TP 1
TN 3
FP 3
FN 5
Content
TP 0
TN 4
FP 0
FN 8
87
Collaborative
TP 2
TN 58
FP 0
FN 34
Content
TP 2
TN 58
FP 1
FN 33
88
Collaborative
TP 2
TN 5
FP 2
FN 1
Content
TP 0
TN 7
FP 0
FN 3
89
Collaborative
TP 2
TN 22
FP 0
FN 12
Content
TP 2
TN 22
FP 0
FN 12
90
Collaborative
TP 5
TN 101
FP 0
FN 26
Content
TP 3
TN 103
FP 1
FN 25
91
Collaborative
TP 3
TN 31
FP 0
FN 14
Content
TP 3
TN 31
FP 0
FN 14
92
Collaborative
TP 4
TN 72
FP 3
FN 104
Content
TP 3
TN 73
FP 1
FN 106
93
Collaborative
TP 1
TN 7
FP 0
FN 3
Content
TP 0
TN 8
FP 0
FN 3
94
Collaborative
TP 3
TN 101
FP 2
FN 69
Content
TP 1
TN 103
FP 1
FN 70
95
Collaborative
TP 5
TN 55
FP 2
FN 54
Content
TP 4
TN 56
FP 1
FN 55
96
Collaborative
TP 3
TN 20
FP 1
FN 3
Content
TP 0
TN 23
FP 0
FN 4
97
Collaborative
TP 5
TN 19
FP 1
FN 3
Content
TP 0
TN 24
FP 0
FN 4
98
Collaborative
TP 0
TN 3
FP 0
FN 8
Content
TP 0
TN 3
FP 1
FN 7
99
Collaborative
TP 4
TN 34
FP 1
FN 34
Content
TP 1
TN 37
FP 1
FN 34
100
Collaborative
TP 1
TN 7
FP 2
FN 13
Content
TP 0
TN 8
FP 0
FN 15
101
Collaborative
TP 1
TN 5
FP 0
FN 23
Content
TP 1
TN 5
FP 1
FN 22
102
Collaborative
TP 1
TN 11
FP 4
FN 86
Content
TP 2
TN 10
FP 3
FN 87
103
Collaborative
TP 1
TN 8
FP 1
FN 4
Content
TP 1
TN 8
FP 0
FN 5
104
Collaborative
TP 2
TN 5
FP 4
FN 37
Content
TP 0
TN 7
FP 0
FN 41
105
Collaborative
TP 1
TN 3
FP 1
FN 2
Content
TP 0
TN 4
FP 1
FN 2
106
Collaborative
TP 1
TN 25
FP 0
FN 10
Content
TP 0
TN 26
FP 0
FN 10
107
Collaborative
TP 0
TN 5
FP 0
FN 4
Content
TP 0
TN 5
FP 0
FN 4
108
Collaborative
TP 1
TN 7
FP 0
FN 8
Content
TP 0
TN 8
FP 0
FN 8
109
Collaborative
TP 3
TN 46
FP 0
FN 51
Content
TP 2
TN 47
FP 1
FN 50
110
Collaborative
TP 0
TN 13
FP 1
FN 32
Content
TP 1
TN 12
FP 1
FN 32
111
Collaborative
TP 2
TN 5
FP 1
FN 4
Content
TP 0
TN 7
FP 0
FN 5
112
Collaborative
TP 3
TN 11
FP 2
FN 6
Content
TP 0
TN 14
FP 0
FN 8
113
Collaborative
TP 1
TN 10
FP 2
FN 7
Content
TP 0
TN 11
FP 0
FN 9
114
Collaborative
TP 2
TN 6
FP 1
FN 11
Content
TP 0
TN 8
FP 0
FN 12
115
Collaborative
TP 1
TN 28
FP 0
FN 14
Content
TP 0
TN 29
FP 0
FN 14
116
Collaborative
TP 0
TN 14
FP 1
FN 37
Content
TP 0
TN 14
FP 1
FN 37
117
Collaborative
TP 5
TN 31
FP 0
FN 14
Content
TP 3
TN 33
FP 0
FN 14
118
Collaborative
TP 4
TN 22
FP 0
FN 3
Content
TP 0
TN 26
FP 1
FN 2
119
Collaborative
TP 1
TN 62
FP 0
FN 18
Content
TP 2
TN 61
FP 0
FN 18
120
Collaborative
TP 0
TN 7
FP 2
FN 3
Content
TP 0
TN 7
FP 1
FN 4
121
Collaborative
TP 0
TN 15
FP 2
FN 11
Content
TP 1
TN 14
FP 0
FN 13
122
Collaborative
TP 0
TN 19
FP 0
FN 8
Content
TP 0
TN 19
FP 0
FN 8
123
Collaborative
TP 0
TN 13
FP 1
FN 11
Content
TP 0
TN 13
FP 0
FN 12
124
Collaborative
TP 0
TN 6
FP 0
FN 4
Content
TP 0
TN 6
FP 0
FN 4
125
Collaborative
TP 5
TN 39
FP 0
FN 44
Content
TP 1
TN 43
FP 1
FN 43
126
Collaborative
TP 1
TN 9
FP 2
FN 10
Content
TP 0
TN 10
FP 1
FN 11
127
Collaborative
TP 0
TN 10
FP 0
FN 2
Content
TP 1
TN 9
FP 0
FN 2
128
Collaborative
TP 4
TN 51
FP 0
FN 25
Content
TP 0
TN 55
FP 0
FN 25
129
Collaborative
TP 1
TN 1
FP 4
FN 9
Content
TP 0
TN 2
FP 1
FN 12
130
Collaborative
TP 8
TN 112
FP 1
FN 50
Content
TP 2
TN 118
FP 1
FN 50
131
Collaborative
TP 1
TN 11
FP 1
FN 2
Content
TP 0
TN 12
FP 0
FN 3
132
Collaborative
TP 1
TN 3
FP 0
FN 1
Content
TP 0
TN 4
FP 0
FN 1
133
Collaborative
TP 2
TN 0
FP 0
FN 6
Content
TP 0
TN 2
FP 0
FN 6
134
Collaborative
TP 0
TN 8
FP 1
FN 4
Content
TP 0
TN 8
FP 0
FN 5
135
Collaborative
TP 1
TN 16
FP 1
FN 16
Content
TP 0
TN 17
FP 0
FN 17
136
Collaborative
TP 2
TN 11
FP 0
FN 2
Content
TP 0
TN 13
FP 0
FN 2
137
Collaborative
TP 2
TN 20
FP 0
FN 1
Content
TP 3
TN 19
FP 0
FN 1
138
Collaborative
TP 0
TN 22
FP 0
FN 2
Content
TP 0
TN 22
FP 0
FN 2
139
Collaborative
TP 0
TN 8
FP 0
FN 1
Content
TP 0
TN 8
FP 0
FN 1
140
Collaborative
TP 2
TN 2
FP 1
FN 6
Content
TP 0
TN 4
FP 0
FN 7
141
Collaborative
TP 5
TN 19
FP 2
FN 16
Content
TP 0
TN 24
FP 1
FN 17
142
Collaborative
TP 0
TN 7
FP 0
FN 6
Content
TP 0
TN 7
FP 0
FN 6
143
Collaborative
TP 0
TN 4
FP 0
FN 1
Content
TP 1
TN 3
FP 0
FN 1
144
Collaborative
TP 2
TN 60
FP 0
FN 33
Content
TP 3
TN 59
FP 1
FN 32
145
Collaborative
TP 2
TN 61
FP 1
FN 64
Content
TP 1
TN 62
FP 0
FN 65
146
Collaborative
TP 3
TN 2
FP 1
FN 3
Content
TP 0
TN 5
FP 0
FN 4
147
Collaborative
TP 3
TN 6
FP 0
FN 1
Content
TP 0
TN 9
FP 0
FN 1
148
Collaborative
TP 1
TN 22
FP 0
FN 8
Content
TP 1
TN 22
FP 0
FN 8
149
Collaborative
TP 0
TN 3
FP 3
FN 5
Content
TP 0
TN 3
FP 0
FN 8
150
Collaborative
TP 1
TN 17
FP 0
FN 4
Content
TP 0
TN 18
FP 0
FN 4
151
Collaborative
TP 5
TN 92
FP 0
FN 42
Content
TP 1
TN 96
FP 2
FN 40
152
Collaborative
TP 2
TN 27
FP 0
FN 7
Content
TP 0
TN 29
FP 0
FN 7
153
Collaborative
TP 0
TN 2
FP 0
FN 8
Content
TP 0
TN 2
FP 0
FN 8
154
Collaborative
TP 2
TN 15
FP 0
FN 7
Content
TP 1
TN 16
FP 0
FN 7
155
Collaborative
TP 0
TN 2
FP 0
FN 9
Content
TP 0
TN 2
FP 0
FN 9
156
Collaborative
TP 0
TN 11
FP 1
FN 7
Content
TP 0
TN 11
FP 1
FN 7
157
Collaborative
TP 0
TN 15
FP 1
FN 8
Content
TP 0
TN 15
FP 0
FN 9
158
Collaborative
TP 3
TN 44
FP 2
FN 25
Content
TP 3
TN 44
FP 0
FN 27
159
Collaborative
TP 0
TN 20
FP 2
FN 15
Content
TP 1
TN 19
FP 0
FN 17
160
Collaborative
TP 2
TN 32
FP 0
FN 19
Content
TP 0
TN 34
FP 0
FN 19
161
Collaborative
TP 0
TN 4
FP 0
FN 20
Content
TP 0
TN 4
FP 0
FN 20
162
Collaborative
TP 2
TN 15
FP 1
FN 4
Content
TP 0
TN 17
FP 0
FN 5
163
Collaborative
TP 0
TN 6
FP 0
FN 4
Content
TP 0
TN 6
FP 0
FN 4
164
Collaborative
TP 3
TN 22
FP 0
FN 5
Content
TP 1
TN 24
FP 0
FN 5
165
Collaborative
TP 1
TN 8
FP 1
FN 2
Content
TP 1
TN 8
FP 0
FN 3
166
Collaborative
TP 2
TN 5
FP 1
FN 2
Content
TP 1
TN 6
FP 0
FN 3
167
Collaborative
TP 0
TN 11
FP 0
FN 15
Content
TP 0
TN 11
FP 0
FN 15
168
Collaborative
TP 4
TN 14
FP 1
FN 15
Content
TP 0
TN 18
FP 0
FN 16
169
Collaborative
TP 1
TN 10
FP 0
FN 3
Content
TP 1
TN 10
FP 0
FN 3
170
Collaborative
TP 0
TN 4
FP 1
FN 2
Content
TP 1
TN 3
FP 0
FN 3
171
Collaborative
TP 2
TN 3
FP 1
FN 3
Content
TP 0
TN 5
FP 0
FN 4
172
Collaborative
TP 0
TN 5
FP 1
FN 12
Content
TP 0
TN 5
FP 0
FN 13
173
Collaborative
TP 1
TN 12
FP 0
FN 3
Content
TP 0
TN 13
FP 0
FN 3
174
Collaborative
TP 0
TN 44
FP 1
FN 34
Content
TP 0
TN 44
FP 0
FN 35
175
Collaborative
TP 0
TN 8
FP 0
FN 7
Content
TP 0
TN 8
FP 0
FN 7
176
Collaborative
TP 3
TN 12
FP 2
FN 4
Content
TP 0
TN 15
FP 0
FN 6
177
Collaborative
TP 3
TN 27
FP 2
FN 20
Content
TP 1
TN 29
FP 1
FN 21
178
Collaborative
TP 5
TN 70
FP 2
FN 42
Content
TP 2
TN 73
FP 1
FN 43
179
Collaborative
TP 0
TN 10
FP 4
FN 4
Content
TP 0
TN 10
FP 0
FN 8
180
Collaborative
TP 3
TN 16
FP 2
FN 8
Content
TP 1
TN 18
FP 1
FN 9
181
Collaborative
TP 0
TN 9
FP 2
FN 155
Content
TP 0
TN 9
FP 1
FN 156
182
Collaborative
TP 0
TN 6
FP 1
FN 7
Content
TP 1
TN 5
FP 0
FN 8
183
Collaborative
TP 1
TN 8
FP 0
FN 14
Content
TP 1
TN 8
FP 1
FN 13
184
Collaborative
TP 4
TN 55
FP 1
FN 53
Content
TP 3
TN 56
FP 0
FN 54
185
Collaborative
TP 2
TN 20
FP 1
FN 1
Content
TP 0
TN 22
FP 0
FN 2
186
Collaborative
TP 0
TN 24
FP 0
FN 19
Content
TP 0
TN 24
FP 0
FN 19
187
Collaborative
TP 1
TN 14
FP 0
FN 7
Content
TP 0
TN 15
FP 0
FN 7
188
Collaborative
TP 2
TN 29
FP 1
FN 22
Content
TP 0
TN 31
FP 0
FN 23
189
Collaborative
TP 6
TN 48
FP 1
FN 21
Content
TP 2
TN 52
FP 0
FN 22
190
Collaborative
TP 3
TN 7
FP 1
FN 12
Content
TP 0
TN 10
FP 0
FN 13
191
Collaborative
TP 1
TN 5
FP 2
FN 9
Content
TP 0
TN 6
FP 0
FN 11
192
Collaborative
TP 1
TN 8
FP 1
FN 4
Content
TP 0
TN 9
FP 0
FN 5
193
Collaborative
TP 3
TN 21
FP 1
FN 34
Content
TP 0
TN 24
FP 0
FN 35
194
Collaborative
TP 2
TN 42
FP 6
FN 90
Content
TP 1
TN 43
FP 3
FN 93
195
Collaborative
TP 0
TN 24
FP 0
FN 21
Content
TP 1
TN 23
FP 0
FN 21
196
Collaborative
TP 0
TN 14
FP 0
FN 4
Content
TP 1
TN 13
FP 0
FN 4
197
Collaborative
TP 5
TN 28
FP 3
FN 30
Content
TP 2
TN 31
FP 2
FN 31
198
Collaborative
TP 4
TN 26
FP 1
FN 42
Content
TP 1
TN 29
FP 3
FN 40
199
Collaborative
TP 3
TN 6
FP 1
FN 11
Content
TP 0
TN 9
FP 0
FN 12
200
Collaborative
TP 4
TN 78
FP 0
FN 21
Content
TP 3
TN 79
FP 0
FN 21
201
Collaborative
TP 3
TN 49
FP 2
FN 109
Content
TP 0
TN 52
FP 0
FN 111
202
Collaborative
TP 0
TN 2
FP 0
FN 5
Content
TP 0
TN 2
FP 0
FN 5
203
Collaborative
TP 1
TN 10
FP 1
FN 9
Content
TP 0
TN 11
FP 0
FN 10
204
Collaborative
TP 0
TN 11
FP 1
FN 11
Content
TP 0
TN 11
FP 0
FN 12
205
Collaborative
TP 1
TN 3
FP 1
FN 7
Content
TP 0
TN 4
FP 0
FN 8
206
Collaborative
TP 3
TN 6
FP 0
FN 20
Content
TP 1
TN 8
FP 0
FN 20
207

Total Collaborative
TP 452
TN 4678
FP 170
FN 3868

precision = TP/(TP + FP) = 452/(452+170)
recall = TP/(TP + TN) = 452/(452+4678)

Total Content
TP 133
TN 4997
FP 74
FN 3964

precision = TP/(TP + FP) = 133/(133+74)
recall = TP/(TP + TN) = 133/(133+4997)

Total: 9168


#tp = tp
#tn = fn
#fn = tn
#fp = fp